Nuevo modelo
…
# Mostrar las primeras filas del nuevo dataset
head(datosEstratificados, 30)

# A tibble: 30 × 31
   `original order` PATID PROT  SEX    RACE  ISOTYPE       AGE   B2M   CRP CREAT
              <dbl> <dbl> <chr> <chr>  <chr> <chr>       <dbl> <dbl> <dbl> <dbl>
 1                1  8241 TT2   female white IgG          53.4   1.8   8.6   0.6
 2                2  9843 TT2   female white IgG          52.7   1.7   8.9   0.6
 3                3  9888 TT2   male   white Nonsecreto…  62.0   5.5   4.5   0.8
 4                4  9835 TT2   male   white IgA          60.3   2.8   9.9   1  
 5                5  9997 TT2   male   white IgG          66.9   4     2.6   1.2
 6                6  9992 TT2   female white IgA          55.3   2.9   2.1   1  
 7                7 10003 TT2   male   white FLC          57.1   3.1  32.5   0.7
 8                8 10021 TT2   male   other IgG          55.9   1.7   8.6   0.8
 9                9  9983 TT2   male   white IgG          54.5   2.5   0.2   1.1
10               10 10107 TT2   male   white IgA          59.7   3.3   1.8   1  
# ℹ 20 more rows
# ℹ 21 more variables: LDH <dbl>, ALB <dbl>, HGB <dbl>, ASPC <dbl>, BMPC <dbl>,
#   MRI <dbl>, Cyto_Abn <dbl>, CPS1 <dbl>, CPR1 <dbl>, EFS_Censor <dbl>,
#   EFS_Time <dbl>, OS_Censor <dbl>, OS_Time <dbl>, AGE_flag <dbl>,
#   B2M_flag <dbl>, CREAT_flag <dbl>, CRP_flag <dbl>, LDH_flag <dbl>,
#   ALB_flag <dbl>, MRI_flag <dbl>, HGB_flag <dbl>
…
